%YAML 1.1
%TAG !u! tag:unity3d.com,2011:
--- !u!114 &11400000
MonoBehaviour:
  m_ObjectHideFlags: 0
  m_CorrespondingSourceObject: {fileID: 0}
  m_PrefabInstance: {fileID: 0}
  m_PrefabAsset: {fileID: 0}
  m_GameObject: {fileID: 0}
  m_Enabled: 1
  m_EditorHideFlags: 0
  m_Script: {fileID: 11500000, guid: f100b7b27b1194f4f85f82a4f892cb12, type: 3}
  m_Name: Enemy Attack
  m_EditorClassIdentifier: Core:ViewModel:CharacterAttack
  DamageAmount:
    value: 5
